{
	"info": {
		"_postman_id": "52da968b-abb4-465c-b0fa-3ef7d7dfe6c7",
		"name": "ISV3-94",
		"schema": "https://schema.getpostman.com/json/collection/v2.1.0/collection.json",
		"_exporter_id": "14044818",
		"_collection_link": "https://www.postman.com/lunar-module-operator-75812474/workspace/isv/collection/14044818-52da968b-abb4-465c-b0fa-3ef7d7dfe6c7?action=share&creator=14044818&source=collection_link"
	},
	"item": [
		{
			"name": "Get all information",
			"request": {
				"method": "GET",
				"header": [],
				"url": {
					"raw": "http://localhost:3000/secret_menu_items",
					"protocol": "http",
					"host": [
						"localhost"
					],
					"port": "3000",
					"path": [
						"secret_menu_items"
					]
				}
			},
			"response": []
		},
		{
			"name": "Get a single item",
			"request": {
				"method": "GET",
				"header": [],
				"url": {
					"raw": "http://localhost:3000/secret_menu_items/:index",
					"protocol": "http",
					"host": [
						"localhost"
					],
					"port": "3000",
					"path": [
						"secret_menu_items",
						":index"
					],
					"variable": [
						{
							"key": "index",
							"value": "2"
						}
					]
				}
			},
			"response": []
		},
		{
			"name": "Create a new item",
			"request": {
				"method": "POST",
				"header": [],
				"body": {
					"mode": "raw",
					"raw": "{\n  \"menu_name\": \"Your Menu Name\",\n  \"restaurant_name\": \"Your Restaurant Name\",\n  \"menu_description\": \"Your Menu Description\"\n}\n",
					"options": {
						"raw": {
							"language": "json"
						}
					}
				},
				"url": {
					"raw": "http://localhost:3000/secret_menu_items",
					"protocol": "http",
					"host": [
						"localhost"
					],
					"port": "3000",
					"path": [
						"secret_menu_items"
					]
				}
			},
			"response": []
		},
		{
			"name": "Update an item",
			"request": {
				"method": "PATCH",
				"header": [],
				"body": {
					"mode": "raw",
					"raw": "{\n  \"menu_name\": \"Hash Brown McMuffin\",\n  \"restaurant_name\": \"McDonald's\",\n  \"menu_description\": \"A traditional Egg McMuffin with the hash brown right in the center\"\n}\n\n",
					"options": {
						"raw": {
							"language": "json"
						}
					}
				},
				"url": {
					"raw": "http://localhost:3000/secret_menu_items/:index",
					"protocol": "http",
					"host": [
						"localhost"
					],
					"port": "3000",
					"path": [
						"secret_menu_items",
						":index"
					],
					"variable": [
						{
							"key": "index",
							"value": "4"
						}
					]
				}
			},
			"response": []
		},
		{
			"name": "Delete an item",
			"request": {
				"method": "DELETE",
				"header": [],
				"url": {
					"raw": "http://localhost:3000/secret_menu_items/:index",
					"protocol": "http",
					"host": [
						"localhost"
					],
					"port": "3000",
					"path": [
						"secret_menu_items",
						":index"
					],
					"variable": [
						{
							"key": "index",
							"value": "4"
						}
					]
				}
			},
			"response": []
		}
	]
}